5.450000000000000000e+01,3.100000000000000000e+01,3.950000000000000000e+01,4.950000000000000000e+01,4.950000000000000000e+01,4.750000000000000000e+01,4.950000000000000000e+01,4.950000000000000000e+01
5.050000000000000000e+01,4.350000000000000000e+01,3.150000000000000000e+01,5.050000000000000000e+01,5.250000000000000000e+01,5.250000000000000000e+01,5.100000000000000000e+01,4.650000000000000000e+01
7.000000000000000000e+00,5.000000000000000000e+01,-3.400000000000000000e+01,5.400000000000000000e+01,5.100000000000000000e+01,4.700000000000000000e+01,0.000000000000000000e+00,0.000000000000000000e+00
0.000000000000000000e+00,0.000000000000000000e+00,0.000000000000000000e+00,0.000000000000000000e+00,0.000000000000000000e+00,0.000000000000000000e+00,0.000000000000000000e+00,0.000000000000000000e+00
0.000000000000000000e+00,0.000000000000000000e+00,0.000000000000000000e+00,0.000000000000000000e+00,0.000000000000000000e+00,0.000000000000000000e+00,0.000000000000000000e+00,0.000000000000000000e+00
